% $ biblatex auxiliary file $
% $ biblatex bbl format version 3.1 $
% Do not modify the above lines!
%
% This is an auxiliary file used by the 'biblatex' package.
% This file may safely be deleted. It will be recreated by
% biber as required.
%
\begingroup
\makeatletter
\@ifundefined{ver@biblatex.sty}
  {\@latex@error
     {Missing 'biblatex' package}
     {The bibliography requires the 'biblatex' package.}
      \aftergroup\endinput}
  {}
\endgroup


\refsection{0}
  \datalist[entry]{apa/global//global/global}
    \entry{minsky2007emotion}{book}{}
      \name{author}{1}{}{%
        {{un=0,uniquepart=base,hash=2fe335dc52e059141e41e4fada160d64}{%
           family={Minsky},
           familyi={M\bibinitperiod},
           given={Marvin},
           giveni={M\bibinitperiod},
           givenun=0}}%
      }
      \list{publisher}{2}{%
        {Simon}%
        {Schuster}%
      }
      \strng{namehash}{2fe335dc52e059141e41e4fada160d64}
      \strng{fullhash}{2fe335dc52e059141e41e4fada160d64}
      \strng{bibnamehash}{2fe335dc52e059141e41e4fada160d64}
      \strng{authorbibnamehash}{2fe335dc52e059141e41e4fada160d64}
      \strng{authornamehash}{2fe335dc52e059141e41e4fada160d64}
      \strng{authorfullhash}{2fe335dc52e059141e41e4fada160d64}
      \field{sortinit}{M}
      \field{sortinithash}{4625c616857f13d17ce56f7d4f97d451}
      \field{extradatescope}{labelyear}
      \field{labeldatesource}{year}
      \true{uniqueprimaryauthor}
      \field{labelnamesource}{author}
      \field{labeltitlesource}{title}
      \field{title}{The emotion machine}
      \field{year}{2007}
    \endentry
    \entry{papert1980mindstorms}{book}{}
      \name{author}{1}{}{%
        {{un=0,uniquepart=base,hash=1c2a469ce4211d0d3369b692b74ee471}{%
           family={Papert},
           familyi={P\bibinitperiod},
           given={Seymour},
           giveni={S\bibinitperiod},
           givenun=0}}%
      }
      \list{publisher}{1}{%
        {Basic books}%
      }
      \strng{namehash}{1c2a469ce4211d0d3369b692b74ee471}
      \strng{fullhash}{1c2a469ce4211d0d3369b692b74ee471}
      \strng{bibnamehash}{1c2a469ce4211d0d3369b692b74ee471}
      \strng{authorbibnamehash}{1c2a469ce4211d0d3369b692b74ee471}
      \strng{authornamehash}{1c2a469ce4211d0d3369b692b74ee471}
      \strng{authorfullhash}{1c2a469ce4211d0d3369b692b74ee471}
      \field{sortinit}{P}
      \field{sortinithash}{ff3bcf24f47321b42cb156c2cc8a8422}
      \field{extradatescope}{labelyear}
      \field{labeldatesource}{year}
      \true{uniqueprimaryauthor}
      \field{labelnamesource}{author}
      \field{labeltitlesource}{title}
      \field{title}{Mindstorms: Children, computers, and powerful ideas}
      \field{year}{1980}
    \endentry
    \entry{tufte2001visual}{misc}{}
      \name{author}{1}{}{%
        {{un=0,uniquepart=base,hash=9bea1db9804038380420bc5c42741810}{%
           family={Tufte},
           familyi={T\bibinitperiod},
           given={Edward},
           giveni={E\bibinitperiod},
           givenun=0}}%
      }
      \list{publisher}{1}{%
        {Cheshire: Graphic Press.--2001.--213 p}%
      }
      \strng{namehash}{9bea1db9804038380420bc5c42741810}
      \strng{fullhash}{9bea1db9804038380420bc5c42741810}
      \strng{bibnamehash}{9bea1db9804038380420bc5c42741810}
      \strng{authorbibnamehash}{9bea1db9804038380420bc5c42741810}
      \strng{authornamehash}{9bea1db9804038380420bc5c42741810}
      \strng{authorfullhash}{9bea1db9804038380420bc5c42741810}
      \field{extraname}{1}
      \field{sortinit}{T}
      \field{sortinithash}{9af77f0292593c26bde9a56e688eaee9}
      \field{extradatescope}{labelyear}
      \field{labeldatesource}{year}
      \true{uniqueprimaryauthor}
      \field{labelnamesource}{author}
      \field{labeltitlesource}{title}
      \field{title}{The visual display of quantitative information}
      \field{year}{2001}
    \endentry
    \entry{tufte2006beautiful}{book}{}
      \name{author}{1}{}{%
        {{un=0,uniquepart=base,hash=9bea1db9804038380420bc5c42741810}{%
           family={Tufte},
           familyi={T\bibinitperiod},
           given={Edward},
           giveni={E\bibinitperiod},
           givenun=0}}%
      }
      \list{publisher}{1}{%
        {Graphics Press Cheshire, CT}%
      }
      \strng{namehash}{9bea1db9804038380420bc5c42741810}
      \strng{fullhash}{9bea1db9804038380420bc5c42741810}
      \strng{bibnamehash}{9bea1db9804038380420bc5c42741810}
      \strng{authorbibnamehash}{9bea1db9804038380420bc5c42741810}
      \strng{authornamehash}{9bea1db9804038380420bc5c42741810}
      \strng{authorfullhash}{9bea1db9804038380420bc5c42741810}
      \field{extraname}{2}
      \field{sortinit}{T}
      \field{sortinithash}{9af77f0292593c26bde9a56e688eaee9}
      \field{extradatescope}{labelyear}
      \field{labeldatesource}{year}
      \true{uniqueprimaryauthor}
      \field{labelnamesource}{author}
      \field{labeltitlesource}{title}
      \field{title}{Beautiful evidence}
      \field{volume}{1}
      \field{year}{2006}
    \endentry
    \entry{whitehead1925science}{book}{}
      \name{author}{1}{}{%
        {{un=0,uniquepart=base,hash=9131dcc0b7c52c07d7d95e489ba0a0f6}{%
           family={Whitehead},
           familyi={W\bibinitperiod},
           given={Alfred\bibnamedelima North},
           giveni={A\bibinitperiod\bibinitdelim N\bibinitperiod},
           givenun=0}}%
      }
      \list{publisher}{1}{%
        {Macmillan}%
      }
      \strng{namehash}{9131dcc0b7c52c07d7d95e489ba0a0f6}
      \strng{fullhash}{9131dcc0b7c52c07d7d95e489ba0a0f6}
      \strng{bibnamehash}{9131dcc0b7c52c07d7d95e489ba0a0f6}
      \strng{authorbibnamehash}{9131dcc0b7c52c07d7d95e489ba0a0f6}
      \strng{authornamehash}{9131dcc0b7c52c07d7d95e489ba0a0f6}
      \strng{authorfullhash}{9131dcc0b7c52c07d7d95e489ba0a0f6}
      \field{sortinit}{W}
      \field{sortinithash}{4315d78024d0cea9b57a0c6f0e35ed0d}
      \field{extradatescope}{labelyear}
      \field{labeldatesource}{year}
      \true{uniqueprimaryauthor}
      \field{labelnamesource}{author}
      \field{labeltitlesource}{title}
      \field{title}{Science and the modern world}
      \field{year}{1925}
    \endentry
  \enddatalist
\endrefsection
\endinput

