\relax 
\@writefile{toc}{\boolfalse {citerequest}\boolfalse {citetracker}\boolfalse {pagetracker}\boolfalse {backtracker}\relax }
\@writefile{lof}{\boolfalse {citerequest}\boolfalse {citetracker}\boolfalse {pagetracker}\boolfalse {backtracker}\relax }
\@writefile{lot}{\boolfalse {citerequest}\boolfalse {citetracker}\boolfalse {pagetracker}\boolfalse {backtracker}\relax }
\abx@aux@refcontext{apa/global//global/global}
\abx@aux@cite{minsky2007emotion}
\abx@aux@segm{0}{0}{minsky2007emotion}
\abx@aux@cite{papert1980mindstorms}
\abx@aux@segm{0}{0}{papert1980mindstorms}
\abx@aux@cite{papert1980mindstorms}
\abx@aux@segm{0}{0}{papert1980mindstorms}
\abx@aux@cite{papert1980mindstorms}
\abx@aux@segm{0}{0}{papert1980mindstorms}
\abx@aux@cite{tufte2006beautiful}
\abx@aux@segm{0}{0}{tufte2006beautiful}
\@writefile{toc}{\defcounter {refsection}{0}\relax }\@writefile{toc}{\contentsline {section}{\numberline {1}Marvin Minsky}{4}{}\protected@file@percent }
\abx@aux@page{1}{4}
\@writefile{toc}{\defcounter {refsection}{0}\relax }\@writefile{toc}{\contentsline {section}{\numberline {2}Seymour Papert}{4}{}\protected@file@percent }
\abx@aux@page{2}{4}
\abx@aux@page{3}{4}
\abx@aux@page{4}{4}
\abx@aux@cite{tufte2006beautiful}
\abx@aux@segm{0}{0}{tufte2006beautiful}
\abx@aux@cite{tufte2006beautiful}
\abx@aux@segm{0}{0}{tufte2006beautiful}
\abx@aux@cite{tufte2006beautiful}
\abx@aux@segm{0}{0}{tufte2006beautiful}
\abx@aux@cite{tufte2006beautiful}
\abx@aux@segm{0}{0}{tufte2006beautiful}
\abx@aux@cite{tufte2006beautiful}
\abx@aux@segm{0}{0}{tufte2006beautiful}
\@writefile{toc}{\defcounter {refsection}{0}\relax }\@writefile{toc}{\contentsline {section}{\numberline {3}Edward Tufte}{5}{}\protected@file@percent }
\abx@aux@page{5}{5}
\abx@aux@page{6}{5}
\abx@aux@page{7}{5}
\abx@aux@page{8}{5}
\abx@aux@page{9}{5}
\abx@aux@cite{tufte2006beautiful}
\abx@aux@segm{0}{0}{tufte2006beautiful}
\abx@aux@cite{tufte2006beautiful}
\abx@aux@segm{0}{0}{tufte2006beautiful}
\abx@aux@cite{tufte2001visual}
\abx@aux@segm{0}{0}{tufte2001visual}
\abx@aux@cite{tufte2001visual}
\abx@aux@segm{0}{0}{tufte2001visual}
\abx@aux@cite{tufte2001visual}
\abx@aux@segm{0}{0}{tufte2001visual}
\abx@aux@cite{tufte2001visual}
\abx@aux@segm{0}{0}{tufte2001visual}
\abx@aux@page{10}{6}
\abx@aux@page{11}{6}
\abx@aux@page{12}{6}
\abx@aux@page{13}{6}
\abx@aux@page{14}{6}
\abx@aux@cite{tufte2001visual}
\abx@aux@segm{0}{0}{tufte2001visual}
\abx@aux@cite{tufte2001visual}
\abx@aux@segm{0}{0}{tufte2001visual}
\abx@aux@cite{tufte2001visual}
\abx@aux@segm{0}{0}{tufte2001visual}
\abx@aux@cite{whitehead1925science}
\abx@aux@segm{0}{0}{whitehead1925science}
\abx@aux@page{15}{7}
\abx@aux@page{16}{7}
\abx@aux@page{17}{7}
\abx@aux@page{18}{7}
\abx@aux@page{19}{7}
\@writefile{toc}{\defcounter {refsection}{0}\relax }\@writefile{toc}{\contentsline {section}{\numberline {4}A. N. Whitehead}{7}{}\protected@file@percent }
\abx@aux@cite{whitehead1925science}
\abx@aux@segm{0}{0}{whitehead1925science}
\abx@aux@cite{whitehead1925science}
\abx@aux@segm{0}{0}{whitehead1925science}
\abx@aux@cite{whitehead1925science}
\abx@aux@segm{0}{0}{whitehead1925science}
\abx@aux@page{20}{8}
\abx@aux@page{21}{8}
\abx@aux@page{22}{8}
\abx@aux@cite{whitehead1925science}
\abx@aux@segm{0}{0}{whitehead1925science}
\abx@aux@cite{whitehead1925science}
\abx@aux@segm{0}{0}{whitehead1925science}
\abx@aux@cite{whitehead1925science}
\abx@aux@segm{0}{0}{whitehead1925science}
\abx@aux@page{23}{9}
\abx@aux@page{24}{9}
\abx@aux@page{25}{9}
\abx@aux@cite{whitehead1925science}
\abx@aux@segm{0}{0}{whitehead1925science}
\abx@aux@cite{whitehead1925science}
\abx@aux@segm{0}{0}{whitehead1925science}
\abx@aux@cite{whitehead1925science}
\abx@aux@segm{0}{0}{whitehead1925science}
\abx@aux@cite{whitehead1925science}
\abx@aux@segm{0}{0}{whitehead1925science}
\abx@aux@page{26}{10}
\abx@aux@page{27}{10}
\abx@aux@page{28}{10}
\abx@aux@page{29}{10}
\abx@aux@cite{whitehead1925science}
\abx@aux@segm{0}{0}{whitehead1925science}
\abx@aux@page{30}{11}
\abx@aux@page{31}{12}
\abx@aux@page{32}{13}
\abx@aux@page{33}{13}
\abx@aux@page{34}{13}
\abx@aux@page{35}{13}
\abx@aux@page{36}{13}
\abx@aux@read@bbl@mdfivesum{19A2F16E9E8AF472F27419354065662E}
\abx@aux@refcontextdefaultsdone
\abx@aux@defaultrefcontext{0}{minsky2007emotion}{apa/global//global/global}
\abx@aux@defaultrefcontext{0}{papert1980mindstorms}{apa/global//global/global}
\abx@aux@defaultrefcontext{0}{tufte2001visual}{apa/global//global/global}
\abx@aux@defaultrefcontext{0}{tufte2006beautiful}{apa/global//global/global}
\abx@aux@defaultrefcontext{0}{whitehead1925science}{apa/global//global/global}
\gdef \@abspage@last{15}
