\boolfalse {citerequest}\boolfalse {citetracker}\boolfalse {pagetracker}\boolfalse {backtracker}\relax 
\defcounter {refsection}{0}\relax 
\contentsline {section}{\numberline {1}Marvin Minsky}{4}{}%
\defcounter {refsection}{0}\relax 
\contentsline {section}{\numberline {2}Seymour Papert}{4}{}%
\defcounter {refsection}{0}\relax 
\contentsline {section}{\numberline {3}Edward Tufte}{5}{}%
\defcounter {refsection}{0}\relax 
\contentsline {section}{\numberline {4}A. N. Whitehead}{7}{}%
